sim/dump.vcd
$version Generated by VerilatedVcd $end
$timescale 1ps $end
 $scope module $rootio $end
  $var wire 1 # clk $end
  $var wire 1 $ rst $end
  $var wire 1 % wr_en $end
  $var wire 1 & rd_en $end
  $var wire 32 ' data_in [31:0] $end
  $var wire 32 ( data_out [31:0] $end
  $var wire 1 ) full $end
  $var wire 1 * empty $end
  $var wire 1 + almost_full $end
  $var wire 1 , almost_empty $end
 $upscope $end
 $scope module sync_fifo $end
  $var wire 32 J WIDTH [31:0] $end
  $var wire 32 K DEPTH [31:0] $end
  $var wire 1 - clk $end
  $var wire 1 . rst $end
  $var wire 1 / wr_en $end
  $var wire 1 0 rd_en $end
  $var wire 32 1 data_in [31:0] $end
  $var wire 32 2 data_out [31:0] $end
  $var wire 1 3 full $end
  $var wire 1 4 empty $end
  $var wire 1 5 almost_full $end
  $var wire 1 6 almost_empty $end
  $var wire 32 7 mem[0] [31:0] $end
  $var wire 32 8 mem[1] [31:0] $end
  $var wire 32 9 mem[2] [31:0] $end
  $var wire 32 : mem[3] [31:0] $end
  $var wire 32 ; mem[4] [31:0] $end
  $var wire 32 < mem[5] [31:0] $end
  $var wire 32 = mem[6] [31:0] $end
  $var wire 32 > mem[7] [31:0] $end
  $var wire 32 ? mem[8] [31:0] $end
  $var wire 32 @ mem[9] [31:0] $end
  $var wire 32 A mem[10] [31:0] $end
  $var wire 32 B mem[11] [31:0] $end
  $var wire 32 C mem[12] [31:0] $end
  $var wire 32 D mem[13] [31:0] $end
  $var wire 32 E mem[14] [31:0] $end
  $var wire 32 F mem[15] [31:0] $end
  $var wire 4 G wr_ptr [3:0] $end
  $var wire 4 H rd_ptr [3:0] $end
  $var wire 5 I fifo_count [4:0] $end
 $upscope $end
$enddefinitions $end


#0
1#
1$
0%
0&
b00000000000000000000000000000000 '
b00000000000000000000000000000000 (
0)
1*
0+
1,
1-
1.
0/
00
b00000000000000000000000000000000 1
b00000000000000000000000000000000 2
03
14
05
16
b00000000000000000000000000000000 7
b00000000000000000000000000000000 8
b00000000000000000000000000000000 9
b00000000000000000000000000000000 :
b00000000000000000000000000000000 ;
b00000000000000000000000000000000 <
b00000000000000000000000000000000 =
b00000000000000000000000000000000 >
b00000000000000000000000000000000 ?
b00000000000000000000000000000000 @
b00000000000000000000000000000000 A
b00000000000000000000000000000000 B
b00000000000000000000000000000000 C
b00000000000000000000000000000000 D
b00000000000000000000000000000000 E
b00000000000000000000000000000000 F
b0000 G
b0000 H
b00000 I
b00000000000000000000000000100000 J
b00000000000000000000000000010000 K
#5000
0#
0-
#10000
1#
0$
1-
0.
#15000
0#
0-
#20000
1#
1%
1-
1/
#25000
0#
0-
#30000
1#
b00000000000000000000000000000001 '
0*
1-
b00000000000000000000000000000001 1
04
b0001 G
b00001 I
#35000
0#
0-
#40000
1#
b00000000000000000000000000000010 '
0,
1-
b00000000000000000000000000000010 1
06
b00000000000000000000000000000001 8
b0010 G
b00010 I
#45000
0#
0-
#50000
1#
b00000000000000000000000000000011 '
1-
b00000000000000000000000000000011 1
b00000000000000000000000000000010 9
b0011 G
b00011 I
#55000
0#
0-
#60000
1#
0%
1-
0/
b00000000000000000000000000000011 :
b0100 G
b00100 I
#65000
0#
0-
#70000
1#
1&
1-
10
#75000
0#
0-
#80000
1#
0&
1-
00
b0001 H
b00011 I
#85000
0#
0-
#90000
1#
1&
1-
10
#95000
0#
0-
#100000
1#
0&
b00000000000000000000000000000001 (
1-
00
b00000000000000000000000000000001 2
b0010 H
b00010 I
#105000
0#
0-
#110000
1#
1&
1-
10
#115000
0#
0-
#120000
1#
0&
b00000000000000000000000000000010 (
1,
1-
00
b00000000000000000000000000000010 2
16
b0011 H
b00001 I
#125000
0#
0-
#130000
1#
1&
1-
10
#135000
0#
0-
#140000
1#
0&
b00000000000000000000000000000011 (
1*
1-
00
b00000000000000000000000000000011 2
14
b0100 H
b00000 I
